arquitetura_si/buffer_int_tb.vcd
$date
	Sat May 27 14:27:51 2017
$end
$version
	Icarus Verilog
$end
$timescale
	1s
$end
$scope module buffer_int_tb $end
$var reg 1 ! clock $end
$upscope $end
$scope module buffer_int_tb $end
$var reg 1 " reset $end
$upscope $end
$scope module buffer_int_tb $end
$var reg 1 # enable $end
$upscope $end
$scope module buffer_int_tb $end
$var reg 1 $ direction $end
$upscope $end
$scope module buffer_int_tb $end
$var reg 1 % modo_leitura $end
$upscope $end
$scope module buffer_int_tb $end
$var reg 8 & in_0 [7:0] $end
$upscope $end
$scope module buffer_int_tb $end
$var reg 8 ' in_1 [7:0] $end
$upscope $end
$scope module buffer_int_tb $end
$var reg 8 ( in_2 [7:0] $end
$upscope $end
$scope module buffer_int_tb $end
$var reg 8 ) in_3 [7:0] $end
$upscope $end
$scope module buffer_int_tb $end
$var reg 8 * in_4 [7:0] $end
$upscope $end
$scope module buffer_int_tb $end
$var reg 8 + in_5 [7:0] $end
$upscope $end
$scope module buffer_int_tb $end
$var reg 8 , in_6 [7:0] $end
$upscope $end
$scope module buffer_int_tb $end
$var reg 8 - in_7 [7:0] $end
$upscope $end
$scope module buffer_int_tb $end
$var reg 8 . in_8 [7:0] $end
$upscope $end
$scope module buffer_int_tb $end
$var reg 8 / in_9 [7:0] $end
$upscope $end
$scope module buffer_int_tb $end
$var reg 8 0 in_10 [7:0] $end
$upscope $end
$scope module buffer_int_tb $end
$var reg 8 1 in_11 [7:0] $end
$upscope $end
$scope module buffer_int_tb $end
$var reg 8 2 in_12 [7:0] $end
$upscope $end
$scope module buffer_int_tb $end
$var reg 8 3 in_13 [7:0] $end
$upscope $end
$scope module buffer_int_tb $end
$var reg 8 4 in_14 [7:0] $end
$upscope $end
$scope module buffer_int_tb $end
$var reg 8 5 in_15 [7:0] $end
$upscope $end
$scope module buffer_int_tb $end
$var wire 8 6 out_0 [7:0] $end
$upscope $end
$scope module buffer_int_tb $end
$var wire 8 7 out_1 [7:0] $end
$upscope $end
$scope module buffer_int_tb $end
$var wire 8 8 out_2 [7:0] $end
$upscope $end
$scope module buffer_int_tb $end
$var wire 8 9 out_3 [7:0] $end
$upscope $end
$scope module buffer_int_tb $end
$var wire 8 : out_4 [7:0] $end
$upscope $end
$scope module buffer_int_tb $end
$var wire 8 ; out_5 [7:0] $end
$upscope $end
$scope module buffer_int_tb $end
$var wire 8 < out_6 [7:0] $end
$upscope $end
$scope module buffer_int_tb $end
$var wire 8 = out_7 [7:0] $end
$upscope $end
$scope module buffer_int_tb $end
$var wire 8 > out_8 [7:0] $end
$upscope $end
$scope module buffer_int_tb $end
$var wire 8 ? out_9 [7:0] $end
$upscope $end
$scope module buffer_int_tb $end
$var wire 8 @ out_10 [7:0] $end
$upscope $end
$scope module buffer_int_tb $end
$var wire 8 A out_11 [7:0] $end
$upscope $end
$scope module buffer_int_tb $end
$var wire 8 B out_12 [7:0] $end
$upscope $end
$scope module buffer_int_tb $end
$var wire 8 C out_13 [7:0] $end
$upscope $end
$scope module buffer_int_tb $end
$var wire 8 D out_14 [7:0] $end
$upscope $end
$scope module buffer_int_tb $end
$var wire 8 E out_15 [7:0] $end
$upscope $end
$enddefinitions $end
#0
$dumpvars
b0 E
b0 D
b0 C
b0 B
b0 A
b0 @
b0 ?
b0 >
b0 =
b0 <
b0 ;
b0 :
b0 9
b0 8
b0 7
b0 6
bx 5
bx 4
bx 3
bx 2
bx 1
bx 0
bx /
bx .
bx -
bx ,
bx +
bx *
bx )
bx (
bx '
bx &
0%
0$
0#
1"
0!
$end
#5
1!
1#
#10
0!
#15
1!
b1111 5
b1110 4
b1101 3
b1100 2
b1011 1
b1010 0
b1001 /
b1000 .
b111 -
b110 ,
b101 +
b100 *
b11 )
b10 (
b1 '
b0 &
0"
#20
0!
#25
1!
b1110011 5
b1110010 4
b1110001 3
b1110000 2
b1101111 1
b1101110 0
b10011 /
b10010 .
b10001 -
b10000 ,
b1111 +
b1110 *
b1101 )
b1100 (
b1011 '
b1010 &
#30
0!
#35
1!
b11010111 5
b11010110 4
b11010101 3
b11010100 2
b11010011 1
b11010010 0
b11101 /
b11100 .
b11011 -
b11010 ,
b11001 +
b11000 *
b10111 )
b10110 (
b10101 '
b10100 &
#40
0!
#45
1!
b111011 5
b111010 4
b111001 3
b111000 2
b110111 1
b110110 0
b100111 /
b100110 .
b100101 -
b100100 ,
b100011 +
b100010 *
b100001 )
b100000 (
b11111 '
b11110 &
#50
0!
#55
1!
b10011111 5
b10011110 4
b10011101 3
b10011100 2
b10011011 1
b10011010 0
b110001 /
b110000 .
b101111 -
b101110 ,
b101101 +
b101100 *
b101011 )
b101010 (
b101001 '
b101000 &
#60
0!
#65
1!
b11 5
b10 4
b1 3
b0 2
b11111111 1
b11111110 0
b111011 /
b111010 .
b111001 -
b111000 ,
b110111 +
b110110 *
b110101 )
b110100 (
b110011 '
b110010 &
#70
0!
#75
1!
b1100111 5
b1100110 4
b1100101 3
b1100100 2
b1100011 1
b1100010 0
b1000101 /
b1000100 .
b1000011 -
b1000010 ,
b1000001 +
b1000000 *
b111111 )
b111110 (
b111101 '
b111100 &
#80
0!
#85
b1111 E
b1110 D
b1101 C
b1100 B
b1011 A
b1010 @
b1001 ?
b1000 >
b111 =
b110 <
b101 ;
b100 :
b11 9
b10 8
b1 7
1!
1%
b11001011 5
b11001010 4
b11001001 3
b11001000 2
b11000111 1
b11000110 0
b1001111 /
b1001110 .
b1001101 -
b1001100 ,
b1001011 +
b1001010 *
b1001001 )
b1001000 (
b1000111 '
b1000110 &
#90
0!
#95
b1010 6
b1011 7
b1100 8
b1101 9
b1110 :
b1111 ;
b10000 <
b10001 =
b10010 >
b10011 ?
b1101110 @
b1101111 A
b1110000 B
b1110001 C
b1110010 D
b1110011 E
1!
#100
0!
#105
b11010111 E
b11010110 D
b11010101 C
b11010100 B
b11010011 A
b11010010 @
b11101 ?
b11100 >
b11011 =
b11010 <
b11001 ;
b11000 :
b10111 9
b10110 8
b10101 7
b10100 6
1!
#110
0!
#115
b11110 6
b11111 7
b100000 8
b100001 9
b100010 :
b100011 ;
b100100 <
b100101 =
b100110 >
b100111 ?
b110110 @
b110111 A
b111000 B
b111001 C
b111010 D
b111011 E
1!
#120
0!
#125
b10011111 E
b10011110 D
b10011101 C
b10011100 B
b10011011 A
b10011010 @
b110001 ?
b110000 >
b101111 =
b101110 <
b101101 ;
b101100 :
b101011 9
b101010 8
b101001 7
b101000 6
1!
#130
0!
#135
b110010 6
b110011 7
b110100 8
b110101 9
b110110 :
b110111 ;
b111000 <
b111001 =
b111010 >
b111011 ?
b11111110 @
b11111111 A
b0 B
b1 C
b10 D
b11 E
1!
#140
0!
#145
b1100111 E
b1100110 D
b1100101 C
b1100100 B
b1100011 A
b1100010 @
b1000101 ?
b1000100 >
b1000011 =
b1000010 <
b1000001 ;
b1000000 :
b111111 9
b111110 8
b111101 7
b111100 6
1!
#150
0!
#155
b1000110 6
b1000111 7
b1001000 8
b1001001 9
b1001010 :
b1001011 ;
b1001100 <
b1001101 =
b1001110 >
b1001111 ?
b11000110 @
b11000111 A
b11001000 B
b11001001 C
b11001010 D
b11001011 E
1!
#160
0!
#165
b1111 E
b1110 D
b1101 C
b1100 B
b1011 A
b1010 @
b1001 ?
b1000 >
b111 =
b110 <
b101 ;
b100 :
b11 9
b10 8
b1 7
b0 6
1!
#170
0!
#175
b1010 7
b10100 8
b11110 9
b101000 :
b110010 ;
b111100 <
b1000110 =
b1111 >
b1111 ?
b1111 @
b1111 A
b1111 B
b1111 C
b1111 D
1!
1$
0#
#180
0!
#185
b1 6
b1011 7
b10101 8
b11111 9
b101001 :
b110011 ;
b111101 <
b1000111 =
1!
1#
#190
0!
#195
b1001000 =
b111110 <
b110100 ;
b101010 :
b100000 9
b10110 8
b1100 7
b10 6
1!
#200
0!
#205
b11 6
b1101 7
b10111 8
b100001 9
b101011 :
b110101 ;
b111111 <
b1001001 =
1!
#210
0!
#215
b1001010 =
b1000000 <
b110110 ;
b101100 :
b100010 9
b11000 8
b1110 7
b100 6
1!
#220
0!
#225
b101 6
b1111 7
b11001 8
b100011 9
b101101 :
b110111 ;
b1000001 <
b1001011 =
1!
#230
0!
#235
b1001100 =
b1000010 <
b111000 ;
b101110 :
b100100 9
b11010 8
b10000 7
b110 6
1!
#240
0!
#245
b111 6
b10001 7
b11011 8
b100101 9
b101111 :
b111001 ;
b1000011 <
b1001101 =
1!
#250
0!
#255
b1001110 =
b1000100 <
b111010 ;
b110000 :
b100110 9
b11100 8
b10010 7
b1000 6
1!
#260
0!
#265
b1001 6
b10011 7
b11101 8
b100111 9
b110001 :
b111011 ;
b1000101 <
b1001111 =
1!
#270
0!
#275
b11000110 =
b1100010 <
b11111110 ;
b10011010 :
b110110 9
b11010010 8
b1101110 7
b1010 6
1!
#280
0!
#285
b1011 6
b1101111 7
b11010011 8
b110111 9
b10011011 :
b11111111 ;
b1100011 <
b11000111 =
1!
#290
0!
#295
b11001000 =
b1100100 <
b0 ;
b10011100 :
b111000 9
b11010100 8
b1110000 7
b1100 6
1!
#300
0!
#305
b1101 6
b1110001 7
b11010101 8
b111001 9
b10011101 :
b1 ;
b1100101 <
b11001001 =
1!
#310
0!
#315
b11001010 =
b1100110 <
b10 ;
b10011110 :
b111010 9
b11010110 8
b1110010 7
b1110 6
1!
#320
0!
#325
b1111 6
b1110011 7
b11010111 8
b111011 9
b10011111 :
b11 ;
b1100111 <
b11001011 =
1!
#330
0!
#335
b1000110 =
b111100 <
b110010 ;
b101000 :
b11110 9
b10100 8
b1010 7
b0 6
1!
#340
0!
#345
b1 6
b1011 7
b10101 8
b11111 9
b101001 :
b110011 ;
b111101 <
b1000111 =
1!
#350
0!
#355
b1001000 =
b111110 <
b110100 ;
b101010 :
b100000 9
b10110 8
b1100 7
b10 6
1!
#360
0!
#365
b11 6
b1101 7
b10111 8
b100001 9
b101011 :
b110101 ;
b111111 <
b1001001 =
1!
#370
0!
#375
b1001010 =
b1000000 <
b110110 ;
b101100 :
b100010 9
b11000 8
b1110 7
b100 6
1!
#380
0!
#385
b101 6
b1111 7
b11001 8
b100011 9
b101101 :
b110111 ;
b1000001 <
b1001011 =
1!
#390
0!
#395
b1001100 =
b1000010 <
b111000 ;
b101110 :
b100100 9
b11010 8
b10000 7
b110 6
1!
#400
0!
#405
b111 6
b10001 7
b11011 8
b100101 9
b101111 :
b111001 ;
b1000011 <
b1001101 =
1!
#410
0!
#415
b1001110 =
b1000100 <
b111010 ;
b110000 :
b100110 9
b11100 8
b10010 7
b1000 6
1!
#420
0!
#425
b1001 6
b10011 7
b11101 8
b100111 9
b110001 :
b111011 ;
b1000101 <
b1001111 =
1!
#430
0!
#435
b11000110 =
b1100010 <
b11111110 ;
b10011010 :
b110110 9
b11010010 8
b1101110 7
b1010 6
1!
#440
0!
#445
b1011 6
b1101111 7
b11010011 8
b110111 9
b10011011 :
b11111111 ;
b1100011 <
b11000111 =
1!
#450
0!
#455
b11001000 =
b1100100 <
b0 ;
b10011100 :
b111000 9
b11010100 8
b1110000 7
b1100 6
1!
#460
0!
#465
b1101 6
b1110001 7
b11010101 8
b111001 9
b10011101 :
b1 ;
b1100101 <
b11001001 =
1!
#470
0!
#475
b11001010 =
b1100110 <
b10 ;
b10011110 :
b111010 9
b11010110 8
b1110010 7
b1110 6
1!
#480
0!
#485
b1111 6
b1110011 7
b11010111 8
b111011 9
b10011111 :
b11 ;
b1100111 <
b11001011 =
1!
#490
0!
#495
b1000110 =
b111100 <
b110010 ;
b101000 :
b11110 9
b10100 8
b1010 7
b0 6
1!
#500
0!
#505
b1 6
b1011 7
b10101 8
b11111 9
b101001 :
b110011 ;
b111101 <
b1000111 =
1!
#510
0!
#515
b1001000 =
b111110 <
b110100 ;
b101010 :
b100000 9
b10110 8
b1100 7
b10 6
1!
#520
0!
#525
b11 6
b1101 7
b10111 8
b100001 9
b101011 :
b110101 ;
b111111 <
b1001001 =
1!
#530
0!
#535
b1001010 =
b1000000 <
b110110 ;
b101100 :
b100010 9
b11000 8
b1110 7
b100 6
1!
